Basics of dplyr – ChartifyR
…
# Uncomment and run these once
#install.packages("tidyverse")
#install.packages("palmerpenguins")

library(tidyverse)
library(palmerpenguins)

Let’s take a look at the data.

Code

penguins

# A tibble: 344 × 8
   species island    bill_length_mm bill_depth_mm flipper_length_mm body_mass_g
   <fct>   <fct>              <dbl>         <dbl>             <int>       <int>
 1 Adelie  Torgersen           39.1          18.7               181        3750
 2 Adelie  Torgersen           39.5          17.4               186        3800
 3 Adelie  Torgersen           40.3          18                 195        3250
 4 Adelie  Torgersen           NA            NA                  NA          NA
 5 Adelie  Torgersen           36.7          19.3               193        3450
 6 Adelie  Torgersen           39.3          20.6               190        3650
 7 Adelie  Torgersen           38.9          17.8               181        3625
 8 Adelie  Torgersen           39.2          19.6               195        4675
 9 Adelie  Torgersen           34.1          18.1               193        3475
10 Adelie  Torgersen           42            20.2               190        4250
# ℹ 334 more rows
# ℹ 2 more variables: sex <fct>, year <int>
…
[1] 344

You’ll see the pipe used throughout this tutorial. Think of it as saying “and then…”

filter()

filter() keeps rows that match a condition. Let’s grab only the Adelie penguins.

Code

penguins |>
  filter(species == "Adelie")

# A tibble: 152 × 8
   species island    bill_length_mm bill_depth_mm flipper_length_mm body_mass_g
   <fct>   <fct>              <dbl>         <dbl>             <int>       <int>
 1 Adelie  Torgersen           39.1          18.7               181        3750
 2 Adelie  Torgersen           39.5          17.4               186        3800
 3 Adelie  Torgersen           40.3          18                 195        3250
 4 Adelie  Torgersen           NA            NA                  NA          NA
 5 Adelie  Torgersen           36.7          19.3               193        3450
 6 Adelie  Torgersen           39.3          20.6               190        3650
 7 Adelie  Torgersen           38.9          17.8               181        3625
 8 Adelie  Torgersen           39.2          19.6               195        4675
 9 Adelie  Torgersen           34.1          18.1               193        3475
10 Adelie  Torgersen           42            20.2               190        4250
# ℹ 142 more rows
# ℹ 2 more variables: sex <fct>, year <int>

You can combine multiple conditions. Let’s find Adelie penguins that weigh more than 4000 grams.

Code

penguins |>
  filter(species == "Adelie", body_mass_g > 4000)

# A tibble: 35 × 8
   species island    bill_length_mm bill_depth_mm flipper_length_mm body_mass_g
   <fct>   <fct>              <dbl>         <dbl>             <int>       <int>
 1 Adelie  Torgersen           39.2          19.6               195        4675
 2 Adelie  Torgersen           42            20.2               190        4250
 3 Adelie  Torgersen           34.6          21.1               198        4400
 4 Adelie  Torgersen           42.5          20.7               197        4500
 5 Adelie  Torgersen           46            21.5               194        4200
 6 Adelie  Dream               39.2          21.1               196        4150
 7 Adelie  Dream               39.8          19.1               184        4650
 8 Adelie  Dream               44.1          19.7               196        4400
 9 Adelie  Dream               39.6          18.8               190        4600
10 Adelie  Dream               42.3          21.2               191        4150
# ℹ 25 more rows
# ℹ 2 more variables: sex <fct>, year <int>

Use | (or) for either/or conditions.

Code

penguins |>
  filter(island == "Biscoe" | island == "Dream")

# A tibble: 292 × 8
   species island bill_length_mm bill_depth_mm flipper_length_mm body_mass_g
   <fct>   <fct>           <dbl>         <dbl>             <int>       <int>
 1 Adelie  Biscoe           37.8          18.3               174        3400
 2 Adelie  Biscoe           37.7          18.7               180        3600
 3 Adelie  Biscoe           35.9          19.2               189        3800
 4 Adelie  Biscoe           38.2          18.1               185        3950
 5 Adelie  Biscoe           38.8          17.2               180        3800
 6 Adelie  Biscoe           35.3          18.9               187        3800
 7 Adelie  Biscoe           40.6          18.6               183        3550
 8 Adelie  Biscoe           40.5          17.9               187        3200
 9 Adelie  Biscoe           37.9          18.6               172        3150
10 Adelie  Biscoe           40.5          18.9               180        3950
# ℹ 282 more rows
# ℹ 2 more variables: sex <fct>, year <int>

A cleaner way to filter for multiple values is %in%.

Code

penguins |>
  filter(island %in% c("Biscoe", "Dream"))

# A tibble: 292 × 8
   species island bill_length_mm bill_depth_mm flipper_length_mm body_mass_g
   <fct>   <fct>           <dbl>         <dbl>             <int>       <int>
 1 Adelie  Biscoe           37.8          18.3               174        3400
 2 Adelie  Biscoe           37.7          18.7               180        3600
 3 Adelie  Biscoe           35.9          19.2               189        3800
 4 Adelie  Biscoe           38.2          18.1               185        3950
 5 Adelie  Biscoe           38.8          17.2               180        3800
 6 Adelie  Biscoe           35.3          18.9               187        3800
 7 Adelie  Biscoe           40.6          18.6               183        3550
 8 Adelie  Biscoe           40.5          17.9               187        3200
 9 Adelie  Biscoe           37.9          18.6               172        3150
10 Adelie  Biscoe           40.5          18.9               180        3950
# ℹ 282 more rows
# ℹ 2 more variables: sex <fct>, year <int>

select()

select() picks specific columns. This is useful when you only need a few variables from a wide dataset.

Code

penguins |>
  select(species, island, body_mass_g)

# A tibble: 344 × 3
   species island    body_mass_g
   <fct>   <fct>           <int>
 1 Adelie  Torgersen        3750
 2 Adelie  Torgersen        3800
 3 Adelie  Torgersen        3250
 4 Adelie  Torgersen          NA
 5 Adelie  Torgersen        3450
 6 Adelie  Torgersen        3650
 7 Adelie  Torgersen        3625
 8 Adelie  Torgersen        4675
 9 Adelie  Torgersen        3475
10 Adelie  Torgersen        4250
# ℹ 334 more rows

You can also remove columns with a minus sign.

Code

penguins |>
  select(-year)

# A tibble: 344 × 7
   species island    bill_length_mm bill_depth_mm flipper_length_mm body_mass_g
   <fct>   <fct>              <dbl>         <dbl>             <int>       <int>
 1 Adelie  Torgersen           39.1          18.7               181        3750
 2 Adelie  Torgersen           39.5          17.4               186        3800
 3 Adelie  Torgersen           40.3          18                 195        3250
 4 Adelie  Torgersen           NA            NA                  NA          NA
 5 Adelie  Torgersen           36.7          19.3               193        3450
 6 Adelie  Torgersen           39.3          20.6               190        3650
 7 Adelie  Torgersen           38.9          17.8               181        3625
 8 Adelie  Torgersen           39.2          19.6               195        4675
 9 Adelie  Torgersen           34.1          18.1               193        3475
10 Adelie  Torgersen           42            20.2               190        4250
# ℹ 334 more rows
# ℹ 1 more variable: sex <fct>

There are handy helper functions too. starts_with() grabs columns that start with a string.

Code

penguins |>
  select(species, starts_with("bill"))

# A tibble: 344 × 3
   species bill_length_mm bill_depth_mm
   <fct>            <dbl>         <dbl>
 1 Adelie            39.1          18.7
 2 Adelie            39.5          17.4
 3 Adelie            40.3          18  
 4 Adelie            NA            NA  
 5 Adelie            36.7          19.3
 6 Adelie            39.3          20.6
 7 Adelie            38.9          17.8
 8 Adelie            39.2          19.6
 9 Adelie            34.1          18.1
10 Adelie            42            20.2
# ℹ 334 more rows

mutate()

mutate() creates new columns or modifies existing ones. Let’s convert body mass from grams to kilograms.

Code

penguins |>
  mutate(body_mass_kg = body_mass_g / 1000) |>
  select(species, body_mass_g, body_mass_kg)

# A tibble: 344 × 3
   species body_mass_g body_mass_kg
   <fct>         <int>        <dbl>
 1 Adelie         3750         3.75
 2 Adelie         3800         3.8 
 3 Adelie         3250         3.25
 4 Adelie           NA        NA   
 5 Adelie         3450         3.45
 6 Adelie         3650         3.65
 7 Adelie         3625         3.62
 8 Adelie         4675         4.68
 9 Adelie         3475         3.48
10 Adelie         4250         4.25
# ℹ 334 more rows

You can create multiple columns at once.

Code

penguins |>
  mutate(
    body_mass_kg = body_mass_g / 1000,
    bill_ratio = bill_length_mm / bill_depth_mm
  ) |>
  select(species, body_mass_kg, bill_ratio)

# A tibble: 344 × 3
   species body_mass_kg bill_ratio
   <fct>          <dbl>      <dbl>
 1 Adelie          3.75       2.09
 2 Adelie          3.8        2.27
 3 Adelie          3.25       2.24
 4 Adelie         NA         NA   
 5 Adelie          3.45       1.90
 6 Adelie          3.65       1.91
 7 Adelie          3.62       2.19
 8 Adelie          4.68       2   
 9 Adelie          3.48       1.88
10 Adelie          4.25       2.08
# ℹ 334 more rows

arrange()

arrange() sorts rows. By default, it sorts in ascending order.

Code

penguins |>
  arrange(body_mass_g)

# A tibble: 344 × 8
   species   island   bill_length_mm bill_depth_mm flipper_length_mm body_mass_g
   <fct>     <fct>             <dbl>         <dbl>             <int>       <int>
 1 Chinstrap Dream              46.9          16.6               192        2700
 2 Adelie    Biscoe             36.5          16.6               181        2850
 3 Adelie    Biscoe             36.4          17.1               184        2850
 4 Adelie    Biscoe             34.5          18.1               187        2900
 5 Adelie    Dream              33.1          16.1               178        2900
 6 Adelie    Torgers…           38.6          17                 188        2900
 7 Chinstrap Dream              43.2          16.6               187        2900
 8 Adelie    Biscoe             37.9          18.6               193        2925
 9 Adelie    Dream              37.5          18.9               179        2975
10 Adelie    Dream              37            16.9               185        3000
# ℹ 334 more rows
# ℹ 2 more variables: sex <fct>, year <int>

Use desc() for descending order.

Code

penguins |>
  arrange(desc(body_mass_g))

# A tibble: 344 × 8
   species island bill_length_mm bill_depth_mm flipper_length_mm body_mass_g
   <fct>   <fct>           <dbl>         <dbl>             <int>       <int>
 1 Gentoo  Biscoe           49.2          15.2               221        6300
 2 Gentoo  Biscoe           59.6          17                 230        6050
 3 Gentoo  Biscoe           51.1          16.3               220        6000
 4 Gentoo  Biscoe           48.8          16.2               222        6000
 5 Gentoo  Biscoe           45.2          16.4               223        5950
 6 Gentoo  Biscoe           49.8          15.9               229        5950
 7 Gentoo  Biscoe           48.4          14.6               213        5850
 8 Gentoo  Biscoe           49.3          15.7               217        5850
 9 Gentoo  Biscoe           55.1          16                 230        5850
10 Gentoo  Biscoe           49.5          16.2               229        5800
# ℹ 334 more rows
# ℹ 2 more variables: sex <fct>, year <int>

You can sort by multiple columns. This sorts by species first, then by body mass within each species.

Code

penguins |>
  arrange(species, desc(body_mass_g))

# A tibble: 344 × 8
   species island    bill_length_mm bill_depth_mm flipper_length_mm body_mass_g
   <fct>   <fct>              <dbl>         <dbl>             <int>       <int>
 1 Adelie  Biscoe              43.2          19                 197        4775
 2 Adelie  Biscoe              41            20                 203        4725
 3 Adelie  Torgersen           42.9          17.6               196        4700
 4 Adelie  Torgersen           39.2          19.6               195        4675
 5 Adelie  Dream               39.8          19.1               184        4650
 6 Adelie  Dream               39.6          18.8               190        4600
 7 Adelie  Biscoe              45.6          20.3               191        4600
 8 Adelie  Torgersen           42.5          20.7               197        4500
 9 Adelie  Dream               37.5          18.5               199        4475
10 Adelie  Torgersen           41.8          19.4               198        4450
# ℹ 334 more rows
# ℹ 2 more variables: sex <fct>, year <int>
…
