Data Cleaning in the Real World – ChartifyR
…
Code

library(tidyverse)

We’ll use two built-in datasets throughout this post:

who2 — World Health Organization tuberculosis data (comes with tidyr). Wide, messy, and realistic.

starwars — Character data from the Star Wars films (comes with dplyr). Has strings to clean and list-columns to untangle.

Code

who2

# A tibble: 7,240 × 58
   country      year sp_m_014 sp_m_1524 sp_m_2534 sp_m_3544 sp_m_4554 sp_m_5564
   <chr>       <dbl>    <dbl>     <dbl>     <dbl>     <dbl>     <dbl>     <dbl>
 1 Afghanistan  1980       NA        NA        NA        NA        NA        NA
 2 Afghanistan  1981       NA        NA        NA        NA        NA        NA
 3 Afghanistan  1982       NA        NA        NA        NA        NA        NA
 4 Afghanistan  1983       NA        NA        NA        NA        NA        NA
 5 Afghanistan  1984       NA        NA        NA        NA        NA        NA
 6 Afghanistan  1985       NA        NA        NA        NA        NA        NA
 7 Afghanistan  1986       NA        NA        NA        NA        NA        NA
 8 Afghanistan  1987       NA        NA        NA        NA        NA        NA
 9 Afghanistan  1988       NA        NA        NA        NA        NA        NA
10 Afghanistan  1989       NA        NA        NA        NA        NA        NA
# ℹ 7,230 more rows
# ℹ 50 more variables: sp_m_65 <dbl>, sp_f_014 <dbl>, sp_f_1524 <dbl>,
#   sp_f_2534 <dbl>, sp_f_3544 <dbl>, sp_f_4554 <dbl>, sp_f_5564 <dbl>,
#   sp_f_65 <dbl>, sn_m_014 <dbl>, sn_m_1524 <dbl>, sn_m_2534 <dbl>,
#   sn_m_3544 <dbl>, sn_m_4554 <dbl>, sn_m_5564 <dbl>, sn_m_65 <dbl>,
#   sn_f_014 <dbl>, sn_f_1524 <dbl>, sn_f_2534 <dbl>, sn_f_3544 <dbl>,
#   sn_f_4554 <dbl>, sn_f_5564 <dbl>, sn_f_65 <dbl>, ep_m_014 <dbl>, …

Code

starwars |> select(name, height, mass, skin_color, homeworld)

# A tibble: 87 × 5
   name               height  mass skin_color  homeworld
   <chr>               <int> <dbl> <chr>       <chr>    
 1 Luke Skywalker        172    77 fair        Tatooine 
 2 C-3PO                 167    75 gold        Tatooine 
 3 R2-D2                  96    32 white, blue Naboo    
 4 Darth Vader           202   136 white       Tatooine 
 5 Leia Organa           150    49 light       Alderaan 
 6 Owen Lars             178   120 light       Tatooine 
 7 Beru Whitesun Lars    165    75 light       Tatooine 
 8 R5-D4                  97    32 white, red  Tatooine 
 9 Biggs Darklighter     183    84 light       Tatooine 
10 Obi-Wan Kenobi        182    77 fair        Stewjon  
# ℹ 77 more rows
…
Each of those sp_m_014, sp_f_1524 columns encodes three variables in a single column name. That’s not tidy. Let’s pivot.

Code

who_long <- who2 |>
  pivot_longer(
    cols = !c(country, year),
    names_to = "category",
    values_to = "count",
    values_drop_na = TRUE
  )

who_long

# A tibble: 76,046 × 4
   country      year category  count
   <chr>       <dbl> <chr>     <dbl>
 1 Afghanistan  1997 sp_m_014      0
 2 Afghanistan  1997 sp_m_1524    10
 3 Afghanistan  1997 sp_m_2534     6
 4 Afghanistan  1997 sp_m_3544     3
 5 Afghanistan  1997 sp_m_4554     5
 6 Afghanistan  1997 sp_m_5564     2
 7 Afghanistan  1997 sp_m_65       0
 8 Afghanistan  1997 sp_f_014      5
 9 Afghanistan  1997 sp_f_1524    38
10 Afghanistan  1997 sp_f_2534    36
# ℹ 76,036 more rows
…
Code

who_tidy <- who2 |>
  pivot_longer(
    cols = !c(country, year),
    names_to = c("diagnosis", "sex", "age_group"),
    names_sep = "_",
    values_to = "count",
    values_drop_na = TRUE
  )

who_tidy

# A tibble: 76,046 × 6
   country      year diagnosis sex   age_group count
   <chr>       <dbl> <chr>     <chr> <chr>     <dbl>
 1 Afghanistan  1997 sp        m     014           0
 2 Afghanistan  1997 sp        m     1524         10
 3 Afghanistan  1997 sp        m     2534          6
 4 Afghanistan  1997 sp        m     3544          3
 5 Afghanistan  1997 sp        m     4554          5
 6 Afghanistan  1997 sp        m     5564          2
 7 Afghanistan  1997 sp        m     65            0
 8 Afghanistan  1997 sp        f     014           5
 9 Afghanistan  1997 sp        f     1524         38
10 Afghanistan  1997 sp        f     2534         36
# ℹ 76,036 more rows
…
